%YAML 1.1
%TAG !u! tag:unity3d.com,2011:
--- !u!1045 &1
EditorBuildSettings:
  m_ObjectHideFlags: 0
  serializedVersion: 2
  m_Scenes:
  - enabled: 1
    path: Assets/Scenes/Level_1.unity
    guid: 9fc0d4010bbf28b4594072e72b8655ab
  - enabled: 1
    path: Assets/Scenes/Level_2.unity
    guid: a90184e7c65b6c845ae7c5d7cbb2ce94
  - enabled: 1
    path: Assets/Scenes/Level_3.unity
    guid: 002cdb86485f7f54e84bb38d5894bbf3
  m_configObjects: {}
